15 Aggregates – Data Journalism with R and the Tidyverse
…
The first step of every analysis starts with the data being used. Then we apply functions to the data.

In our case, the pattern that you’ll use many, many times is: data |> group_by(COLUMN NAME) |> summarize(VARIABLE NAME = AGGREGATE FUNCTION(COLUMN NAME))

In our dataset, the column with term information is called “term”

Here’s the code to count the number of courses in each term:

umd_courses |>
  group_by(term) |>
  summarise(
    count_classes = n()
  )

# A tibble: 29 × 2
     term count_classes
    <dbl>         <int>
 1 201712           487
 2 201801          4479
 3 201805          1231
 4 201808          4465
 5 201905          1183
 6 201908          4537
 7 201912           516
 8 202001          4648
 9 202005          1357
10 202008          4508
# ℹ 19 more rows
…
Inside the parentheses in summarize, we set up the summaries we want. In this case, we just want a count of the number of classes for each term grouping. The line of code count_classes = n(), says create a new field, called count_classes and set it equal to n(). n() is a function that counts the number of rows or records in each group. Why the letter n? The letter n is a common symbol used to denote a count of something. The number of things (or rows or observations or records) in a dataset? Statisticians call it n. There are n number of classes in this dataset.

When we run that, we get a list of terms with a count next to them. But it’s not in any order.

So we’ll add another “and then do this” symbol – |> – and use a new function called arrange(). Arrange does what you think it does – it arranges data in order. By default, it’s in ascending order – smallest to largest. But if we want to know the term with the most classes, we need to sort it in descending order. That looks like this:

umd_courses |>
  group_by(term) |>
  summarise(
    count_classes = n()
  ) |>
  arrange(desc(count_classes))

# A tibble: 29 × 2
     term count_classes
    <dbl>         <int>
 1 202408          5052
 2 202208          4975
 3 202401          4959
 4 202501          4893
 5 202308          4849
 6 202001          4648
 7 202301          4578
 8 202108          4545
 9 201908          4537
10 202008          4508
# ℹ 19 more rows
…
We can, if we want, group by more than one thing. The courses data contains a column detailing the department.

We can group by “term” and “department” to see how many courses each department offered in each term. We’ll sort by department and term.

umd_courses |>
  group_by(term, department) |>
  summarise(
    count_classes = n()
  ) |>
  arrange(term, department)

`summarise()` has grouped output by 'term'. You can override using the
`.groups` argument.

# A tibble: 4,270 × 3
# Groups:   term [29]
     term department                                   count_classes
    <dbl> <chr>                                                <int>
 1 201712 African American Studies                                 6
 2 201712 Agricultural and Resource Economics                      1
 3 201712 American Studies                                         4
 4 201712 Animal Science                                           5
 5 201712 Anthropology                                            25
 6 201712 Applied Mathematics & Scientific Computation             3
 7 201712 Arabic                                                   1
 8 201712 Art History & Archaeology                                3
 9 201712 Art Studio                                              13
10 201712 Asian American Studies                                   1
# ℹ 4,260 more rows
15.4 Other summarization methods: summing, mean, median, min and max

In the last example, we grouped like records together and counted them, but there’s so much more we can do to summarize each group.

Let’s say we wanted to know the total number of seats offered in each term? For that, we could use the sum() function to add up all of the values in the column “seats”. We put the column we want to total – “seats” – inside the sum() function sum(seats). Note that we can simply add a new summarize function here, keeping our count_classes field in our output table.

umd_courses |>
  group_by(term) |>
  summarise(
    count_classes = n(),
    total_seats = sum(seats)
  ) |>
  arrange(desc(total_seats))

# A tibble: 29 × 3
     term count_classes total_seats
    <dbl>         <int>       <dbl>
 1 202408          5052      241341
 2 202208          4975      230796
 3 202308          4849      229128
 4 202108          4545      223321
 5 202401          4959      220040
 6 202008          4508      217314
 7 201908          4537      217075
 8 201808          4465      208839
 9 202301          4578      207465
10 202201          4493      206075
# ℹ 19 more rows

We can also calculate the average number of seats for each department – the mean – and the number that sits at the midpoint of our data – the median.

umd_courses |>
  group_by(term) |>
  summarise(
    count_classes = n(),
    total_seats = sum(seats),
    mean_seats = mean(seats),
    median_seats = median(seats)
  ) |>
  arrange(desc(total_seats))

# A tibble: 29 × 5
     term count_classes total_seats mean_seats median_seats
    <dbl>         <int>       <dbl>      <dbl>        <dbl>
 1 202408          5052      241341       47.8           23
 2 202208          4975      230796       46.4           22
 3 202308          4849      229128       47.3           24
 4 202108          4545      223321       49.1           25
 5 202401          4959      220040       44.4           24
 6 202008          4508      217314       48.2           22
 7 201908          4537      217075       47.8           24
 8 201808          4465      208839       46.8           20
 9 202301          4578      207465       45.3           25
10 202201          4493      206075       45.9           24
# ℹ 19 more rows
…
What about the highest and lowest number of seats for each department? For that, we can use the min() and max() functions.

umd_courses |>
  group_by(department) |>
  summarise(
    count_classes = n(),
    total_seats = sum(seats),
    mean_seats = mean(seats),
    median_seats = median(seats),
    min_seats = min(seats),
    max_seats = max(seats)
  ) |>
  arrange(desc(total_seats))

# A tibble: 222 × 7
   department        count_classes total_seats mean_seats median_seats min_seats
   <chr>                     <int>       <dbl>      <dbl>        <dbl>     <dbl>
 1 Business and Man…          2498      212114       84.9           45         0
 2 Computer Science           1410      157586      112.            45         0
 3 Mathematics                1340      135107      101.            27         0
 4 English                    2054      130166       63.4           23         0
 5 Biological Scien…          1564      124339       79.5           30         0
 6 Information Stud…          1613      115974       71.9           38         0
 7 Chemistry                   875      106586      122.            36         0
 8 Engineering Scie…           809      103095      127.            45         0
 9 Economics                  1441       88650       61.5           35         0
10 Communication              1780       87846       49.4           30         0
# ℹ 212 more rows
# ℹ 1 more variable: max_seats <dbl>

From this, we can see that every department has courses with 0 seats listed. We’ll need to account for those in any analysis, probably by excluding them. The variation in mean and median seats is interesting, too: look at Mathematics and English compared to Computer Science and Engineering, for example. These patterns aren’t random: departments make choices about the courses they offer.

It would be interesting to see what the course with the largest number of seats is. To do that, we could simply take our original data set and sort it from highest to lowest on seats

umd_courses |>
  arrange(desc(seats))

# A tibble: 79,366 × 9
   id      title        description   term department sections instructors seats
   <chr>   <chr>        <chr>        <dbl> <chr>         <dbl> <chr>       <dbl>
 1 UNIV100 The Student… "Credit on… 201808 Universit…      144 Valerie Go…  2876
 2 UNIV100 The Student… "Credit on… 202108 Universit…      131 Tori Shay;…  2685
 3 UNIV100 The Student… "Credit on… 202208 Universit…      127 Tori Shay;…  2575
 4 ENES140 Discovering… "Additiona… 202201 Engineeri…       10 James Green  2500
 5 ENES140 Discovering… "Additiona… 202501 Engineeri…       10 James Green  2500
 6 ENES140 Discovering… "Additiona… 202101 Engineeri…       10 James Green  2500
 7 ENES140 Discovering… "Additiona… 202401 Engineeri…       10 James Green  2500
 8 ENES140 Discovering… "Additiona… 202001 Engineeri…       10 James Green  2500
 9 ENES140 Discovering… "Additiona… 201801 Engineeri…       10 James Green  2500
10 ENES140 Discovering… "Additiona… 202301 Engineeri…       10 James Green  2500
# ℹ 79,356 more rows
# ℹ 1 more variable: syllabus_count <dbl>
…
