Data Journalism with R and the Tidyverse - 31 Basic Stats: Linear Regression and The T-Test
…
state_data <- read_csv("data/regression_data.csv")

Rows: 50 Columns: 5
── Column specification ────────────────────────────────────────────────────────
Delimiter: ","
chr (2): state, vote_2020
dbl (3): per_pupil_2021, gdp_growth_2021, pop_change_2021

ℹ Use `spec()` to retrieve the full column specification for this data.
ℹ Specify the column types or set `show_col_types = FALSE` to quiet this message.

state_data

# A tibble: 50 × 5
   state       per_pupil_2021 gdp_growth_2021 pop_change_2021 vote_2020
   <chr>                <dbl>           <dbl>           <dbl> <chr>    
 1 Alabama              10683             5.1            0.37 Trump    
 2 Alaska               19540             0.3            0.17 Trump    
 3 Arizona               9611             6.3            1.18 Biden    
 4 Arkansas             11266             5.2            0.46 Trump    
 5 California           14985             7.8           -0.91 Biden    
 6 Colorado             12255             5.8            0.46 Biden    
 7 Connecticut          22769             4.8            0.72 Biden    
 8 Delaware             17448             3.4            1.28 Biden    
 9 Florida              10401             8.4            1.1  Trump    
10 Georgia              12145             7              0.54 Biden    
# ℹ 40 more rows
…
