19 Data Cleaning Part I: Data smells – Data Journalism with R and the Tidyverse
…
Rows: 369008 Columns: 8
── Column specification ────────────────────────────────────────────────────────
Delimiter: ","
chr (4): Agency Name, Vendor Name, Date, Category
dbl (4): Fiscal Year, Vendor Zip, Amount, Fiscal Period

ℹ Use `spec()` to retrieve the full column specification for this data.
ℹ Specify the column types or set `show_col_types = FALSE` to quiet this message.

Pay attention to the red warning that signals “one or more parsing issues.” It advises us to run the problems() function to see what went wrong. Let’s do that.

problems(payments)

# A tibble: 369 × 5
     row   col expected actual file                                             
   <int> <int> <chr>    <chr>  <chr>                                            
 1  9568     4 a double L4Z4B  /Users/dwillis/code/datajournalismbook-maryland/…
 2 10117     4 a double L4Y1Z  /Users/dwillis/code/datajournalismbook-maryland/…
 3 10476     4 a double 0LAND  /Users/dwillis/code/datajournalismbook-maryland/…
 4 12308     4 a double H4S    /Users/dwillis/code/datajournalismbook-maryland/…
 5 13084     4 a double N2G    /Users/dwillis/code/datajournalismbook-maryland/…
 6 15549     4 a double GOR    /Users/dwillis/code/datajournalismbook-maryland/…
 7 15772     4 a double N5V    /Users/dwillis/code/datajournalismbook-maryland/…
 8 15844     4 a double T1Y    /Users/dwillis/code/datajournalismbook-maryland/…
 9 15877     4 a double R2C    /Users/dwillis/code/datajournalismbook-maryland/…
10 15973     4 a double L4L34  /Users/dwillis/code/datajournalismbook-maryland/…
# ℹ 359 more rows
…
19.2 Wrong Spatial Data

The second smell we can find in code is wrong spatial data. Spatial data means data that refers to some geography; in this dataset the only geographical element is the vendor’s zip code. Zip codes should be, at a minimum, five characters long (although composed of numbers, zip codes aren’t used as numbers).

We can check to see if any of the zip codes are less than five characters by using a function called str_length inside a filter:

payments |>
  group_by(`Vendor Zip`) |>
  filter(str_length(`Vendor Zip`) < 5) |> 
  summarise(
    count=n()
  ) |>
  arrange(desc(count))

# A tibble: 553 × 2
   `Vendor Zip` count
   <chr>        <int>
 1 2241          2044
 2 8873           434
 3 2284           356
 4 7921           296
 5 4915           197
 6 8650           195
 7 7188           194
 8 7101           191
 9 1441           133
10 7102           112
# ℹ 543 more rows
…
ℹ Use `spec()` to retrieve the full column specification for this data.
ℹ Specify the column types or set `show_col_types = FALSE` to quiet this message.

Each row represents a recipient of state grant or loan, along with information about their location and the state agency that provided the money. When we talk about gaps, often they indicate the administrative rules. Here’s an example: let’s count the number of payments in each category (Grant or Loan) by year in this dataset:

md_grants_loans |> 
  group_by(`Fiscal Year`, Category) |> 
  summarize(count = n()) |> 
  arrange(`Fiscal Year`)

`summarise()` has grouped output by 'Fiscal Year'. You can override using the
`.groups` argument.

# A tibble: 35 × 3
# Groups:   Fiscal Year [15]
   `Fiscal Year` Category count
           <dbl> <chr>    <int>
 1          2009 Grant      819
 2          2010 Grant      612
 3          2010 Loan        76
 4          2010 <NA>         1
 5          2011 Grant      990
 6          2011 Loan        45
 7          2011 <NA>         1
 8          2012 Grant     1100
 9          2012 Loan        58
10          2013 Grant      986
# ℹ 25 more rows

We can see a couple of issues here: first, there is no loan data for FY 2009. That’s mentioned in the source page for the data. It’s good to be aware of all gaps in data, but they don’t always represent a problem. Second, and more problematic, there are a few records where the Category is NA - that data is missing. There also are some inconsistent values - there are 50 records in FY2013 with the category of “L” (probably loans) and one in FY 2017 that is listed as “Contract”.

19.4 Unusual Outliers

Any time you are going to focus on a column for analysis, you should check for unusual values. Are there any unusually large values or unusually small values? Are there any values that raise immediate questions about the data? Let’s look at the smallest amounts in the grants and loan data.

md_grants_loans |> 
  arrange(Amount)

# A tibble: 19,482 × 9
   Grantor          Grantee `Zip Code` `Fiscal Year` Amount Description Category
   <chr>            <chr>   <chr>              <dbl>  <dbl> <chr>       <chr>   
 1 Department of N… Land P… 21285               2009   60   Catherine … Grant   
 2 Maryland Depart… UNITED… 21031               2012   96.0 FOOD SERVI… Grant   
 3 Conservation Re… Easter… 21601               2018  186.  Rolling Vi… Grant   
 4 Maryland Depart… FAMILY… 20877               2013  304   RTTT - EAR… Grant   
 5 Maryland Depart… Washin… 21740               2017  361   Hold Harml… Grant   
 6 Maryland Depart… THE CH… 21215-3211          2012  362.  FOOD SERVI… Grant   
 7 Maryland Depart… ARCHDI… 21227               2012  379.  MARYLAND M… Grant   
 8 Maryland Depart… HUMAN … 21158               2013  387   CASH FOR C… Grant   
 9 Department of N… The Co… 22209               2012  402.  R Creighto… Grant   
10 Governor's Offi… Court … 21204               2018  411.  Children's… Grant   
# ℹ 19,472 more rows
# ℹ 2 more variables: `Fiscal Period` <dbl>, Date <chr>
…
