20 Data Cleaning Part II: Janitor – Data Journalism with R and the Tidyverse
…
Every system has their own way of recording headers, and every developer has their own thoughts of what a good idea is within it. R is most happy when headers are lower case, without special characters.

If column headers start with a number, or have a space in between two words, you have to set them off with backticks when using them in a function. Generally speaking, we want one word (or words separated by an underscore), all lowercase, that don’t start with numbers.

The janitor library makes fixing headers trivially simple with the function clean_names()

# cleaning function
cleaned_md_grants_loans <- md_grants_loans |>
  clean_names()

# display the cleaned dataset
cleaned_md_grants_loans

# A tibble: 19,482 × 9
   grantor              grantee zip_code fiscal_year amount description category
   <chr>                <chr>   <chr>          <dbl>  <dbl> <chr>       <chr>   
 1 Commerce/Maryland T… PRINCE… 20772           2017 1.28e5 Maryland T… Grant   
 2 Department of Healt… Associ… 21201           2010 9.34e4 Minority O… Grant   
 3 Maryland Department… WESTED… 94107-1…        2014 1.61e6 GRANTS FOR… Grant   
 4 Department of Healt… Maryla… 21075           2010 2.14e5 Babies Bor… Grant   
 5 Department of Natur… Anacos… 20710           2017 1.74e5 Payments m… Grant   
 6 Department of Busin… Washin… 21740           2009 5.59e4 grant fund… Grant   
 7 Boards and Commissi… Domest… 21045           2014 1.72e5 Domestic V… Grant   
 8 MD Small Business D… Dacore… 20601           2018 1.04e5 Maryland S… Loan    
 9 Maryland Higher Edu… Mount … 21727           2015 1.75e6 Sellinger … Grant   
10 Department of Busin… Olney … 20830           2010 2.16e5 Grant fund… Grant   
# ℹ 19,472 more rows
# ℹ 2 more variables: fiscal_period <dbl>, date <chr>

This function changed Zip Code to zip_code and generally got rid of capital letters and replaced spaces with underscores. If we wanted to rename a column, we can use a tidyverse function rename() to do that. Let’s change grantor to source as an example. NOTE: when using rename(), the new name comes first.

# cleaning function
cleaned_md_grants_loans <- md_grants_loans |>
  clean_names() |> 
  rename(source = grantor)

# display the cleaned dataset
cleaned_md_grants_loans

# A tibble: 19,482 × 9
   source grantee zip_code fiscal_year amount description category fiscal_period
   <chr>  <chr>   <chr>          <dbl>  <dbl> <chr>       <chr>            <dbl>
 1 Comme… PRINCE… 20772           2017 1.28e5 Maryland T… Grant                1
 2 Depar… Associ… 21201           2010 9.34e4 Minority O… Grant                1
 3 Maryl… WESTED… 94107-1…        2014 1.61e6 GRANTS FOR… Grant                1
 4 Depar… Maryla… 21075           2010 2.14e5 Babies Bor… Grant                1
 5 Depar… Anacos… 20710           2017 1.74e5 Payments m… Grant                1
 6 Depar… Washin… 21740           2009 5.59e4 grant fund… Grant                1
 7 Board… Domest… 21045           2014 1.72e5 Domestic V… Grant                1
 8 MD Sm… Dacore… 20601           2018 1.04e5 Maryland S… Loan                 1
 9 Maryl… Mount … 21727           2015 1.75e6 Sellinger … Grant                1
10 Depar… Olney … 20830           2010 2.16e5 Grant fund… Grant                1
# ℹ 19,472 more rows
# ℹ 1 more variable: date <chr>

20.2 Changing capitalization

Right now the source, grantee and description columns have inconsistent capitalization. We can fix that using a mutate statement and a function that changes the case of text called str_to_upper(). We’ll use the same columns, overwriting what’s in there since all we’re doing is changing case.

# cleaning function
cleaned_md_grants_loans <- md_grants_loans |>
  clean_names() |> 
  rename(source = grantor) |> 
  mutate(source = str_to_upper(source), grantee = str_to_upper(grantee), description = str_to_upper(description))

# display the cleaned dataset
cleaned_md_grants_loans

# A tibble: 19,482 × 9
   source grantee zip_code fiscal_year amount description category fiscal_period
   <chr>  <chr>   <chr>          <dbl>  <dbl> <chr>       <chr>            <dbl>
 1 COMME… PRINCE… 20772           2017 1.28e5 MARYLAND T… Grant                1
 2 DEPAR… ASSOCI… 21201           2010 9.34e4 MINORITY O… Grant                1
 3 MARYL… WESTED… 94107-1…        2014 1.61e6 GRANTS FOR… Grant                1
 4 DEPAR… MARYLA… 21075           2010 2.14e5 BABIES BOR… Grant                1
 5 DEPAR… ANACOS… 20710           2017 1.74e5 PAYMENTS M… Grant                1
 6 DEPAR… WASHIN… 21740           2009 5.59e4 GRANT FUND… Grant                1
 7 BOARD… DOMEST… 21045           2014 1.72e5 DOMESTIC V… Grant                1
 8 MD SM… DACORE… 20601           2018 1.04e5 MARYLAND S… Loan                 1
 9 MARYL… MOUNT … 21727           2015 1.75e6 SELLINGER … Grant                1
10 DEPAR… OLNEY … 20830           2010 2.16e5 GRANT FUND… Grant                1
# ℹ 19,472 more rows
# ℹ 1 more variable: date <chr>
…
20.3 Duplicates

One of the most difficult problems to fix in data is duplicate records in the data. They can creep in with bad joins, bad data entry practices, mistakes – all kinds of reasons. A duplicated record isn’t always there because of an error, but you need to know if it’s there before making that determination.

So the question is, do we have any records repeated?

Here we’ll use a function called get_dupes from the janitor library to check for fully repeated records in our cleaned data set.

cleaned_md_grants_loans |>
  get_dupes()

No variable names specified - using all columns.

# A tibble: 58 × 10
   source grantee zip_code fiscal_year amount description category fiscal_period
   <chr>  <chr>   <chr>          <dbl>  <dbl> <chr>       <chr>            <dbl>
 1 BOARD… CASA C… 21740           2009 6.62e4 SERVICES T… Grant                1
 2 BOARD… CASA C… 21740           2009 6.62e4 SERVICES T… Grant                1
 3 BOARD… FAMILY… 21218           2009 2.18e5 PRE-ADJUDI… Grant                1
 4 BOARD… FAMILY… 21218           2009 2.18e5 PRE-ADJUDI… Grant                1
 5 BOARD… HEARTL… 21705           2009 5.32e4 UNDERSERVE… Grant                1
 6 BOARD… HEARTL… 21705           2009 5.32e4 UNDERSERVE… Grant                1
 7 BOARD… MARYLA… 21012           2009 9.72e4 CAPACITY B… Grant                1
 8 BOARD… MARYLA… 21012           2009 9.72e4 CAPACITY B… Grant                1
 9 BOARD… MARYLA… 21012           2009 9.72e4 SEXUAL ASS… Grant                1
10 BOARD… MARYLA… 21012           2009 9.72e4 SEXUAL ASS… Grant                1
# ℹ 48 more rows
# ℹ 2 more variables: date <chr>, dupe_count <int>

And the answer is … maybe? Because the original dataset doesn’t have a unique identifier for each grant, it’s possible that we have duplicates here, as many as 58. If we could confirm that these actually are duplicates, we can fix this by adding the function distinct() to our cleaning script. This will keep only one copy of each unique record in our table. But we’d need to confirm that first.

# cleaning function
cleaned_md_grants_loans <- md_grants_loans |>
  clean_names() |> 
  rename(source = grantor) |> 
  mutate(source = str_to_upper(source), grantee = str_to_upper(grantee), description = str_to_upper(description)) |> 
  distinct()

# display the cleaned dataset
cleaned_md_grants_loans

# A tibble: 19,453 × 9
   source grantee zip_code fiscal_year amount description category fiscal_period
   <chr>  <chr>   <chr>          <dbl>  <dbl> <chr>       <chr>            <dbl>
 1 COMME… PRINCE… 20772           2017 1.28e5 MARYLAND T… Grant                1
 2 DEPAR… ASSOCI… 21201           2010 9.34e4 MINORITY O… Grant                1
 3 MARYL… WESTED… 94107-1…        2014 1.61e6 GRANTS FOR… Grant                1
 4 DEPAR… MARYLA… 21075           2010 2.14e5 BABIES BOR… Grant                1
 5 DEPAR… ANACOS… 20710           2017 1.74e5 PAYMENTS M… Grant                1
 6 DEPAR… WASHIN… 21740           2009 5.59e4 GRANT FUND… Grant                1
 7 BOARD… DOMEST… 21045           2014 1.72e5 DOMESTIC V… Grant                1
 8 MD SM… DACORE… 20601           2018 1.04e5 MARYLAND S… Loan                 1
 9 MARYL… MOUNT … 21727           2015 1.75e6 SELLINGER … Grant                1
10 DEPAR… OLNEY … 20830           2010 2.16e5 GRANT FUND… Grant                1
# ℹ 19,443 more rows
# ℹ 1 more variable: date <chr>
…
We’re going to write code that tells R to make a new column for our zips, keeping the first five digits on the left, and get rid of anything after that by using mutate() in concert with str_sub(), from the stringr package.

# cleaning function
cleaned_md_grants_loans <- md_grants_loans |>
  clean_names() |> 
  rename(source = grantor) |> 
  mutate(source = str_to_upper(source), grantee = str_to_upper(grantee), description = str_to_upper(description)) |> 
  distinct() |>
  mutate(zip5 = str_sub(zip_code, start=1L, end=5L))

# display the cleaned dataset
cleaned_md_grants_loans

# A tibble: 19,453 × 10
   source grantee zip_code fiscal_year amount description category fiscal_period
   <chr>  <chr>   <chr>          <dbl>  <dbl> <chr>       <chr>            <dbl>
 1 COMME… PRINCE… 20772           2017 1.28e5 MARYLAND T… Grant                1
 2 DEPAR… ASSOCI… 21201           2010 9.34e4 MINORITY O… Grant                1
 3 MARYL… WESTED… 94107-1…        2014 1.61e6 GRANTS FOR… Grant                1
 4 DEPAR… MARYLA… 21075           2010 2.14e5 BABIES BOR… Grant                1
 5 DEPAR… ANACOS… 20710           2017 1.74e5 PAYMENTS M… Grant                1
 6 DEPAR… WASHIN… 21740           2009 5.59e4 GRANT FUND… Grant                1
 7 BOARD… DOMEST… 21045           2014 1.72e5 DOMESTIC V… Grant                1
 8 MD SM… DACORE… 20601           2018 1.04e5 MARYLAND S… Loan                 1
 9 MARYL… MOUNT … 21727           2015 1.75e6 SELLINGER … Grant                1
10 DEPAR… OLNEY … 20830           2010 2.16e5 GRANT FUND… Grant                1
# ℹ 19,443 more rows
# ℹ 2 more variables: date <chr>, zip5 <chr>
…
# display the cleaned dataset
cleaned_md_grants_loans

# A tibble: 19,453 × 10
   source grantee zip_code fiscal_year amount description category fiscal_period
   <chr>  <chr>   <chr>          <dbl>  <dbl> <chr>       <chr>            <dbl>
 1 COMME… PRINCE… 20772           2017 1.28e5 MARYLAND T… Grant                1
 2 DEPAR… ASSOCI… 21201           2010 9.34e4 MINORITY O… Grant                1
 3 MARYL… WESTED… 94107-1…        2014 1.61e6 GRANTS FOR… Grant                1
 4 DEPAR… MARYLA… 21075           2010 2.14e5 BABIES BOR… Grant                1
 5 DEPAR… ANACOS… 20710           2017 1.74e5 PAYMENTS M… Grant                1
 6 DEPAR… WASHIN… 21740           2009 5.59e4 GRANT FUND… Grant                1
 7 BOARD… DOMEST… 21045           2014 1.72e5 DOMESTIC V… Grant                1
 8 MD SM… DACORE… 20601           2018 1.04e5 MARYLAND S… Loan                 1
 9 MARYL… MOUNT … 21727           2015 1.75e6 SELLINGER … Grant                1
10 DEPAR… OLNEY … 20830           2010 2.16e5 GRANT FUND… Grant                1
# ℹ 19,443 more rows
# ℹ 2 more variables: date <chr>, zip5 <chr>
…
# display the cleaned dataset
cleaned_md_grants_loans

# A tibble: 19,453 × 10
   source grantee zip_code fiscal_year amount description category fiscal_period
   <chr>  <chr>   <chr>          <dbl>  <dbl> <chr>       <chr>            <dbl>
 1 COMME… PRINCE… 20772           2017 1.28e5 MARYLAND T… Grant                1
 2 DEPAR… ASSOCI… 21201           2010 9.34e4 MINORITY O… Grant                1
 3 MARYL… WESTED… 94107-1…        2014 1.61e6 GRANTS FOR… Grant                1
 4 DEPAR… MARYLA… 21075           2010 2.14e5 BABIES BOR… Grant                1
 5 DEPAR… ANACOS… 20710           2017 1.74e5 PAYMENTS M… Grant                1
 6 DEPAR… WASHIN… 21740           2009 5.59e4 GRANT FUND… Grant                1
 7 BOARD… DOMEST… 21045           2014 1.72e5 DOMESTIC V… Grant                1
 8 MD SM… DACORE… 20601           2018 1.04e5 MARYLAND S… Loan                 1
 9 MARYL… MOUNT … 21727           2015 1.75e6 SELLINGER … Grant                1
10 DEPAR… OLNEY … 20830           2010 2.16e5 GRANT FUND… Grant                1
# ℹ 19,443 more rows
# ℹ 2 more variables: date <chr>, zip5 <chr>
…
