28 Geographic analysis – Data Journalism with R and the Tidyverse
…
md_county_notices

# A tibble: 25 × 4
   Date                   Type                          county           notices
   <chr>                  <chr>                         <chr>              <dbl>
 1 03/01/2023 12:00:00 AM Notice of Intent to Foreclose Allegany County       79
 2 03/01/2023 12:00:00 AM Notice of Intent to Foreclose Anne Arundel Co…     475
 3 03/01/2023 12:00:00 AM Notice of Intent to Foreclose Baltimore City       754
 4 03/01/2023 12:00:00 AM Notice of Intent to Foreclose Baltimore County     847
 5 03/01/2023 12:00:00 AM Notice of Intent to Foreclose Calvert County       116
 6 03/01/2023 12:00:00 AM Notice of Intent to Foreclose Caroline County       40
 7 03/01/2023 12:00:00 AM Notice of Intent to Foreclose Carroll County       133
 8 03/01/2023 12:00:00 AM Notice of Intent to Foreclose Cecil County         109
 9 03/01/2023 12:00:00 AM Notice of Intent to Foreclose Charles County       336
10 03/01/2023 12:00:00 AM Notice of Intent to Foreclose Dorchester Coun…      41
# ℹ 15 more rows
…
