Data Journalism with R and the Tidyverse - 18 Mutating data
…
Now, does this ordering do anything for us? No. Let’s fix that with arrange.

general_22 <- general_22 %>%
  mutate(
    pct_moore = (moore/total_votes)*100
  ) %>% 
  arrange(desc(pct_moore))

So now we have results ordered by pct_moore with the highest percentage first. To see the lowest percentage first, we can reverse that arrange function - we don’t need to recalculate the column:

general_22 %>%
  arrange(pct_moore)

# A tibble: 24 × 10
   fips_code county       cox moore lashar wallace harding write_ins total_votes
       <dbl> <chr>      <dbl> <dbl>  <dbl>   <dbl>   <dbl>     <dbl>       <dbl>
 1     24023 Garrett     8195  2402    194      52     138         0       10843
 2     24001 Allegany   13833  6390    279     143     267         0       20645
 3     24015 Cecil      18159  8691    472     155     311         0       27477
 4     24011 Caroline    6727  3276    176      56     140         0       10235
 5     24039 Somerset    3974  2254     67      46      81         0        6341
 6     24043 Washington 26943 15723    614     252     472         0       43532
 7     24013 Carroll    38969 25155   1515     436     561         0       66075
 8     24047 Worcester  13433  8550    273     121     161         0       22377
 9     24037 Saint Mar… 20279 13291    661     253     346         0       34484
10     24035 Queen Ann… 12840  8577    416     120     212         0       21953
# ℹ 14 more rows
# ℹ 1 more variable: pct_moore <dbl>
…
maryland_expenses <- read_csv("data/maryland_expenses.csv")

Rows: 97912 Columns: 14
── Column specification ────────────────────────────────────────────────────────
Delimiter: ","
chr (12): expenditure_date, payee_name, address, payee_type, committee_name,...
dbl  (1): amount
lgl  (1): expense_toward

ℹ Use `spec()` to retrieve the full column specification for this data.
ℹ Specify the column types or set `show_col_types = FALSE` to quiet this message.

maryland_expenses

# A tibble: 97,912 × 14
   expenditure_date payee_name          address payee_type amount committee_name
   <chr>            <chr>               <chr>   <chr>       <dbl> <chr>         
 1 3/12/2021        <NA>                <NA>    Reimburse   350   Salling   Joh…
 2 3/29/2021        Dundalk Eagle News… PO Box… Business/…  329   Salling   Joh…
 3 4/29/2021        Dundalk Eagle News… PO Box… Business/…  400   Salling   Joh…
 4 5/18/2021        Dundalk Eagle News… PO Box… Business/…  350   Salling   Joh…
 5 6/9/2021         Dundalk Heritage F… Dundal… Business/…  200   Salling   Joh…
 6 6/9/2021         Dundalk Heritage F… Dundal… Business/…  250   Salling   Joh…
 7 6/1/2021         Neighborhood Signs  6655 a… Business/…   77.4 Salling   Joh…
 8 4/16/2021        <NA>                <NA>    Reimburse   150   Salling   Joh…
 9 7/1/2021         MSP CUSTOM SOL      1000 P… Business/…  238.  Salling   Joh…
10 7/2/2021         Squire's Restaurant 6723 H… Business/…  260   Salling   Joh…
# ℹ 97,902 more rows
# ℹ 8 more variables: expense_category <chr>, expense_purpose <chr>,
#   expense_toward <lgl>, expense_method <chr>, vendor <chr>, fundtype <chr>,
#   comments <chr>, x14 <chr>
…
