Data Journalism with R and the Tidyverse - 21 Data Cleaning Part III: Open Refine
…
Let’s load that Maryland state government grants and loan data that we’ve been working with, and to make our standardization work easier we’ll change all the grantees to upper-case.

Now let’s try and group and count the number of grants by recipient. To make it a bit more manageable, let’s use another string function from stringr and filter for recipients that start with the uppercase “W” or lowercase “w” using the function str_detect() with a regular expression.

The filter function in the codeblock below says: look in the city column, and pluck out any value that starts with (the “^” symbol means “starts with”) a lowercase “w” OR (the vertical “|”, called a pipe, means OR) an uppercase “W”.

md_grant_loans %>%
  group_by(Grantee) %>%
  summarise(
    count=n()
  ) %>%
  filter(str_detect(Grantee, '^w|^W')) %>%
  arrange(Grantee)

# A tibble: 323 × 2
   Grantee                          count
   <chr>                            <int>
 1 W. F. DELAUTER & SON, INC.           1
 2 W.R. GRACE & CO.                     1
 3 WABASH MARKETS OF MARYLAND, INC.     1
 4 WAGABOUT                             1
 5 WAH,LLC                              1
 6 WALBROOK MILL APARTMENTS             1
 7 WALDEN SIERRA                        1
 8 WALDEN SIERRA INC                    1
 9 WALDEN SIERRA, INC.                 31
10 WALDORF ARETE, LLC                   1
# ℹ 313 more rows
…
By using the Open Refine package for R, refinr, our hope is that it can identify and standardize the data with a little more ease.

The first merging technique that’s part of the refinr package we’ll try is the key_collision_merge.

The key collision merge function takes each string and extracts the key parts of it. It then puts every key in a bin based on the keys matching.

One rule you should follow when using this is: do not overwrite your original fields. Always work on a copy. If you overwrite your original field, how will you know if it did the right thing? How can you compare it to your original data? To follow this, I’m going to mutate a new field called clean_city and put the results of key collision merge there.

cleaned_md_grant_loans <- md_grant_loans %>%
  mutate(grantee_clean=key_collision_merge(Grantee)) %>%
  select(Grantee, grantee_clean, everything())

cleaned_md_grant_loans

# A tibble: 17,765 × 10
   Grantee     grantee_clean Grantor `Zip Code` `Fiscal Year` Amount Description
   <chr>       <chr>         <chr>   <chr>              <dbl>  <dbl> <chr>      
 1 PRINCE GEO… PRINCE GEORG… Commer… 20772               2017 1.28e5 Maryland T…
 2 ASSOCIATED… ASSOCIATED B… Depart… 21201               2010 9.34e4 Minority O…
 3 WESTED/PUB… WESTED/PUBLI… Maryla… 94107-1242          2014 1.61e6 GRANTS FOR…
 4 MARYLAND P… MARYLAND PAT… Depart… 21075               2010 2.14e5 Babies Bor…
 5 ANACOSTIA … ANACOSTIA WA… Depart… 20710               2017 1.74e5 Payments m…
 6 WASHINGTON… WASHINGTON C… Depart… 21740               2009 5.59e4 grant fund…
 7 DOMESTIC V… DOMESTIC VIO… Boards… 21045               2014 1.72e5 Domestic V…
 8 DACORE INV… DACORE INVES… MD Sma… 20601               2018 1.04e5 Maryland S…
 9 MOUNT ST M… MOUNT ST MAR… Maryla… 21727               2015 1.75e6 Sellinger …
10 OLNEY THEA… OLNEY THEATR… Depart… 20830               2010 2.16e5 Grant fund…
# ℹ 17,755 more rows
# ℹ 3 more variables: Category <chr>, `Fiscal Period` <dbl>, Date <chr>

To examine changes refinr made, let’s examine the changes it made to cities that start with the letter “W”.

cleaned_md_grant_loans %>%
  group_by(Grantee, grantee_clean) %>%
  summarise(
    count=n()
  ) %>%
  filter(str_detect(Grantee, '^w|^W')) %>%
  arrange(Grantee)

`summarise()` has grouped output by 'Grantee'. You can override using the
`.groups` argument.

# A tibble: 323 × 3
# Groups:   Grantee [323]
   Grantee                          grantee_clean                    count
   <chr>                            <chr>                            <int>
 1 W. F. DELAUTER & SON, INC.       W. F. DELAUTER & SON, INC.           1
 2 W.R. GRACE & CO.                 W.R. GRACE & CO.                     1
 3 WABASH MARKETS OF MARYLAND, INC. WABASH MARKETS OF MARYLAND, INC.     1
 4 WAGABOUT                         WAGABOUT                             1
 5 WAH,LLC                          WAH,LLC                              1
 6 WALBROOK MILL APARTMENTS         WALBROOK MILL APARTMENTS             1
 7 WALDEN SIERRA                    WALDEN SIERRA, INC.                  1
 8 WALDEN SIERRA INC                WALDEN SIERRA, INC.                  1
 9 WALDEN SIERRA, INC.              WALDEN SIERRA, INC.                 31
10 WALDORF ARETE, LLC               WALDORF ARETE, LLC                   1
# ℹ 313 more rows

You can see several changes on the first page of results, including that refinr consolidated all the Walden Sierra entries into a single one in grantee_clean, which is pretty smart. Other potential changes, grouping together “WALTER’S ART MUSEUM” and “THE WALTERS ART MUSEUM”, didn’t happen. Key collision will do well with different cases, but all of our records are upper case.

There’s another merging algorithim that’s part of refinr that works a bit differently, called n_gram_merge(). Let’s try applying that one.

cleaned_md_grant_loans <- md_grant_loans %>%
  mutate(grantee_clean=n_gram_merge(Grantee)) %>%
  select(Grantee, grantee_clean, everything())

cleaned_md_grant_loans

# A tibble: 17,765 × 10
   Grantee     grantee_clean Grantor `Zip Code` `Fiscal Year` Amount Description
   <chr>       <chr>         <chr>   <chr>              <dbl>  <dbl> <chr>      
 1 PRINCE GEO… PRINCE GEORG… Commer… 20772               2017 1.28e5 Maryland T…
 2 ASSOCIATED… ASSOCIATED B… Depart… 21201               2010 9.34e4 Minority O…
 3 WESTED/PUB… WESTED/PUBLI… Maryla… 94107-1242          2014 1.61e6 GRANTS FOR…
 4 MARYLAND P… MARYLAND PAT… Depart… 21075               2010 2.14e5 Babies Bor…
 5 ANACOSTIA … ANACOSTIA WA… Depart… 20710               2017 1.74e5 Payments m…
 6 WASHINGTON… WASHINGTON C… Depart… 21740               2009 5.59e4 grant fund…
 7 DOMESTIC V… DOMESTIC VIO… Boards… 21045               2014 1.72e5 Domestic V…
 8 DACORE INV… DACORE INVES… MD Sma… 20601               2018 1.04e5 Maryland S…
 9 MOUNT ST M… MOUNT ST MAR… Maryla… 21727               2015 1.75e6 Sellinger …
10 OLNEY THEA… OLNEY THEATR… Depart… 20830               2010 2.16e5 Grant fund…
# ℹ 17,755 more rows
# ℹ 3 more variables: Category <chr>, `Fiscal Period` <dbl>, Date <chr>

To examine changes refinr made with this algorithm, let’s again look at recipients that start with the letter “W”. We see there wasn’t a substantial change from the previous method, and it even missed a few the first method got.

cleaned_md_grant_loans %>%
  group_by(Grantee, grantee_clean) %>%
  summarise(
    count=n()
  ) %>%
  filter(str_detect(Grantee, '^w|^W')) %>%
  arrange(Grantee)

`summarise()` has grouped output by 'Grantee'. You can override using the
`.groups` argument.

# A tibble: 323 × 3
# Groups:   Grantee [323]
   Grantee                          grantee_clean                    count
   <chr>                            <chr>                            <int>
 1 W. F. DELAUTER & SON, INC.       W. F. DELAUTER & SON, INC.           1
 2 W.R. GRACE & CO.                 W.R. GRACE & CO.                     1
 3 WABASH MARKETS OF MARYLAND, INC. WABASH MARKETS OF MARYLAND, INC.     1
 4 WAGABOUT                         WAGABOUT                             1
 5 WAH,LLC                          WAH,LLC                              1
 6 WALBROOK MILL APARTMENTS         WALBROOK MILL APARTMENTS             1
 7 WALDEN SIERRA                    WALDEN SIERRA, INC.                  1
 8 WALDEN SIERRA INC                WALDEN SIERRA, INC.                  1
 9 WALDEN SIERRA, INC.              WALDEN SIERRA, INC.                 31
10 WALDORF ARETE, LLC               WALDORF ARETE, LLC                   1
# ℹ 313 more rows
…
