Data Journalism with R and the Tidyverse - 22 Cleaning Data Part IV: PDFs
…
voters_by_county <- read_csv("data/tabula-Eligible Active Voters by County - GG22.csv")

Rows: 25 Columns: 10
── Column specification ────────────────────────────────────────────────────────
Delimiter: ","
chr (1): County
dbl (1): BAR

ℹ Use `spec()` to retrieve the full column specification for this data.
ℹ Specify the column types or set `show_col_types = FALSE` to quiet this message.

voters_by_county

# A tibble: 25 × 10
   County              DEM    REP   BAR   GRN   LIB   WCP   OTH    UNA  TOTAL
   <chr>             <dbl>  <dbl> <dbl> <dbl> <dbl> <dbl> <dbl>  <dbl>  <dbl>
 1 Allegany          11793  22732     0    76   223    73   382   8337  43616
 2 Anne Arundel     173922 129893     0   632  2257   434  2951  96403 406492
 3 Baltimore City   303620  28211     0   908  1080   666  3984  56665 395134
 4 Baltimore County 309297 137378     0   898  2493   687  5921 106789 563463
 5 Calvert           23779  27912     0    94   410    69   548  15169  67981
 6 Caroline           6250  10539     0    34   108    40   160   4454  21585
 7 Carroll           33572  63771     0   191   797   102  1033  28139 127605
 8 Cecil             20666  31961     0   111   447   104   678  16360  70327
 9 Charles           74373  23334     0   129   425   143   864  21819 121087
10 Dorchester         9608   8965     0    22   110    33   191   3745  22674
# ℹ 15 more rows
…
fentanyl_deaths <- read_csv("data/tabula-Annual_2020_Drug_Intox_Report.csv") %>% clean_names()

Rows: 29 Columns: 12
── Column specification ────────────────────────────────────────────────────────
Delimiter: ","
chr (1): MARYLAND ......................................
dbl (6): 26, 29, 58, 186, 340, 1,119

ℹ Use `spec()` to retrieve the full column specification for this data.
ℹ Specify the column types or set `show_col_types = FALSE` to quiet this message.

fentanyl_deaths

# A tibble: 29 × 12
   maryland       x26   x29   x58  x186  x340 x1_119 x1_594 x1_888 x1_927 x2_342
   <chr>        <dbl> <dbl> <dbl> <dbl> <dbl>  <dbl>  <dbl>  <dbl>  <dbl>  <dbl>
 1 NORTHWEST A…     6     3     7     8    32    109    119    166    146    200
 2 GARRETT ...…     1     0     0     0     2      0      2      2      5      5
 3 ALLEGANY ..…     1     1     1     1     5     29     29     29     19     44
 4 WASHINGTON …     1     1     4     1    14     31     39     70     70     95
 5 FREDERICK .…     3     1     2     6    11     49     49     65     52     56
 6 BALTIMORE M…    10    16    35   142   248    792   1118   1415   1395   1605
 7 BALTIMORE C…     2     4    12    72   120    419    573    758    810    920
 8 BALTIMORE C…     4     5    11    36    65    182    244    308    285    328
 9 ANNE ARUNDE…     2     3     6    23    29     98    152    184    164    209
10 CARROLL ...…     0     1     2     4    11     20     40     55     47     37
# ℹ 19 more rows
# ℹ 1 more variable: x9_509 <dbl>
…
fentanyl_deaths <- read_csv("data/tabula-Annual_2020_Drug_Intox_Report.csv", col_names = FALSE) %>% clean_names()

Rows: 30 Columns: 12
── Column specification ────────────────────────────────────────────────────────
Delimiter: ","
chr (1): X1
dbl (5): X2, X3, X4, X5, X6

ℹ Use `spec()` to retrieve the full column specification for this data.
ℹ Specify the column types or set `show_col_types = FALSE` to quiet this message.

fentanyl_deaths

# A tibble: 30 × 12
   x1             x2    x3    x4    x5    x6    x7    x8    x9   x10   x11   x12
   <chr>       <dbl> <dbl> <dbl> <dbl> <dbl> <dbl> <dbl> <dbl> <dbl> <dbl> <dbl>
 1 MARYLAND .…    26    29    58   186   340  1119  1594  1888  1927  2342  9509
 2 NORTHWEST …     6     3     7     8    32   109   119   166   146   200   796
 3 GARRETT ..…     1     0     0     0     2     0     2     2     5     5    17
 4 ALLEGANY .…     1     1     1     1     5    29    29    29    19    44   159
 5 WASHINGTON…     1     1     4     1    14    31    39    70    70    95   326
 6 FREDERICK …     3     1     2     6    11    49    49    65    52    56   294
 7 BALTIMORE …    10    16    35   142   248   792  1118  1415  1395  1605  6776
 8 BALTIMORE …     2     4    12    72   120   419   573   758   810   920  3690
 9 BALTIMORE …     4     5    11    36    65   182   244   308   285   328  1468
10 ANNE ARUND…     2     3     6    23    29    98   152   184   164   209   870
# ℹ 20 more rows
…
Rows: 30 Columns: 12
── Column specification ────────────────────────────────────────────────────────
Delimiter: ","
chr (1): X1
dbl (5): X2, X3, X4, X5, X6

ℹ Use `spec()` to retrieve the full column specification for this data.
ℹ Specify the column types or set `show_col_types = FALSE` to quiet this message.

fentanyl_deaths

# A tibble: 30 × 12
   jurisdiction      deaths_2011 deaths_2012 deaths_2013 deaths_2014 deaths_2015
   <chr>                   <dbl>       <dbl>       <dbl>       <dbl>       <dbl>
 1 MARYLAND .......…          26          29          58         186         340
 2 NORTHWEST AREA .…           6           3           7           8          32
 3 GARRETT ........…           1           0           0           0           2
 4 ALLEGANY .......…           1           1           1           1           5
 5 WASHINGTON .....…           1           1           4           1          14
 6 FREDERICK ......…           3           1           2           6          11
 7 BALTIMORE METRO …          10          16          35         142         248
 8 BALTIMORE CITY .…           2           4          12          72         120
 9 BALTIMORE COUNTY…           4           5          11          36          65
10 ANNE ARUNDEL ...…           2           3           6          23          29
# ℹ 20 more rows
# ℹ 6 more variables: deaths_2016 <dbl>, deaths_2017 <dbl>, deaths_2018 <dbl>,
#   deaths_2019 <dbl>, deaths_2020 <dbl>, deaths_total <dbl>
…
Rows: 30 Columns: 12
── Column specification ────────────────────────────────────────────────────────
Delimiter: ","
chr (1): X1
dbl (5): X2, X3, X4, X5, X6

ℹ Use `spec()` to retrieve the full column specification for this data.
ℹ Specify the column types or set `show_col_types = FALSE` to quiet this message.

fentanyl_deaths

# A tibble: 30 × 12
   jurisdiction      deaths_2011 deaths_2012 deaths_2013 deaths_2014 deaths_2015
   <chr>                   <dbl>       <dbl>       <dbl>       <dbl>       <dbl>
 1 MARYLAND                   26          29          58         186         340
 2 NORTHWEST AREA              6           3           7           8          32
 3 GARRETT                     1           0           0           0           2
 4 ALLEGANY                    1           1           1           1           5
 5 WASHINGTON                  1           1           4           1          14
 6 FREDERICK                   3           1           2           6          11
 7 BALTIMORE METRO …          10          16          35         142         248
 8 BALTIMORE CITY              2           4          12          72         120
 9 BALTIMORE COUNTY            4           5          11          36          65
10 ANNE ARUNDEL                2           3           6          23          29
# ℹ 20 more rows
# ℹ 6 more variables: deaths_2016 <dbl>, deaths_2017 <dbl>, deaths_2018 <dbl>,
#   deaths_2019 <dbl>, deaths_2020 <dbl>, deaths_total <dbl>
…
