30 Scraping data with Rvest – Data Journalism with R and the Tidyverse
…
The table that we want is actually contained inside an html <table>. It has a <tbody> that contains one row <tr> per release.

Because it’s inside of a table, and not some other kind of element (like a <div>), rvest has a special function for easily extracting and converting html tables, called html_table(). This function extracts all the html tables on the page, but this page only has one so we’re good.

# read in the html and extract all the tables
results <- courts_url |>
  read_html() |>
  html_table()

# show the dataframe

results

[[1]]
# A tibble: 41 × 2
   Date              `News Release/News Item`                                   
   <chr>             <chr>                                                      
 1 December 22, 2024 Maryland courts, court offices, and administrative offices…
 2 December 20, 2024 Legionella Bacteria Detected in Baltimore City Circuit and…
 3 December 11, 2024 Maryland Judiciary Honors Student Winners of 19th Annual C…
 4 December 11, 2024 Media Advisory: District Court in Anne Arundel County offe…
 5 December 10, 2024 Media Advisory: District Court in Prince George’s County o…
 6 December 2, 2024  Media Advisory: Anne Arundel County District Court celebra…
 7 December 2, 2024  Media Advisory: Maryland Judiciary announces winners of th…
 8 November 20, 2024 Media Advisory: National Adoption Day celebrations hosted …
 9 November 20, 2024 Judge Joseph M. Stanalonis named administrative judge for …
10 November 20, 2024 Senior Judge Alan M. Wilner retires as chair of the  Stand…
# ℹ 31 more rows

[[2]]
# A tibble: 37 × 2
   Date              `News Release/News Item`                                   
   <chr>             <chr>                                                      
 1 December 28, 2023 Maryland Judiciary launches E-rent program statewide       
 2 December 20, 2023 Student winners of the Maryland Judiciary's 18th Annual Co…
 3 December 5, 2023  Media Advisory: Maryland Judiciary announces winners of th…
 4 November 22, 2023 Retired Baltimore Ravens Wide Receiver Torrey Smith celebr…
 5 November 15, 2023 Media Advisory: Circuit courts in Maryland host National A…
 6 November 9, 2023  Media Advisory: Baltimore City District Court Veterans Tre…
 7 November 7, 2023  Maryland Judiciary launches E-rent program in Prince Georg…
 8 November 3, 2023  Supreme Court of Maryland holds oral arguments at Dr. Henr…
 9 October 30, 2023  Media Advisory: Baltimore City District Court Re-Entry Pro…
10 October 26, 2023  Maryland Judiciary issues statement after suspect in the m…
# ℹ 27 more rows

[[3]]
# A tibble: 48 × 2
   Date              `News Release/News Item`                                   
   <chr>             <chr>                                                      
 1 December 20, 2022 Media Advisory: Supreme Court of Maryland to hold open mee…
 2 December 14, 2022 Voter-approved constitutional change renames high courts t…
 3 December 7, 2022  Student winners of the Maryland Judiciary's 17th Annual Co…
 4 December 7, 2022  Retired Baltimore Ravens Wide Receiver Jermaine Lewis cele…
 5 December 6, 2022  Media Advisory: Judge DaNeeka Varner Cotton named administ…
 6 December 2, 2022  Media Advisory: Winners to be announced for Maryland Judic…
 7 November 22, 2022 Media Advisory: Baltimore City District Court Re-Entry Pro…
 8 November 17, 2022 New La Plata Court Help Center opens in Charles County     
 9 November 16, 2022 Media Advisory: Circuit courts in Maryland host in-person …
10 November 10, 2022 Media Advisory: Baltimore City District Court Veterans Tre…
# ℹ 38 more rows

[[4]]
# A tibble: 46 × 2
   Date              `News Release/News Item`                                   
   <chr>             <chr>                                                      
 1 December 27, 2021 Maryland Judiciary reverts operations to Phase III in resp…
 2 December 22, 2021 Small fire at the Circuit Court for Talbot County causes t…
 3 December 15, 2021 Media Advisory: District Court in Anne Arundel County will…
 4 December 10, 2021 New Rockville District Court Help Center is already making…
 5 December 9, 2021  Chief Judge Joseph M. Getty congratulates student winners …
 6 December 8, 2021  Media Advisory: Grand opening celebration of the District …
 7 December 8, 2021  Media Advisory: Winners announced for Maryland Judiciary’s…
 8 November 17, 2021 Media Advisory: For a second year, circuit courts in Maryl…
 9 November 15, 2021 Media Advisory: Baltimore City Veterans Treatment Court ce…
10 November 1, 2021  Maryland lawyers donate 1.03 million hours of legal servic…
# ℹ 36 more rows

[[5]]
# A tibble: 67 × 2
   Date              `News Release/News Item`                                   
   <chr>             <chr>                                                      
 1 December 22, 2020 The Maryland Judiciary extends Phase II operations through…
 2 December 21, 2020 Maryland courts, court offices, and administrative offices…
 3 November 24, 2020 Maryland Judiciary restricts operations to Phase II in res…
 4 November 18, 2020 Media Advisory: Circuit courts in Maryland prepare for vir…
 5 November 16, 2020 Media Advisory: Circuit Court for Montgomery County to hon…
 6 November 13, 2020 Judge Ruth A. Jakubowski named circuit and county administ…
 7 November 13, 2020 Judge Sherri D. Koch named District Administrative Judge f…
 8 November 12, 2020 Maryland Judiciary restricts operations to Phase III in re…
 9 November 5, 2020  Somerset County Circuit Court holds its first Adult Recove…
10 November 5, 2020  Baltimore County Family Recovery Support Program celebrate…
# ℹ 57 more rows

[[6]]
# A tibble: 53 × 2
   Date              `News Release/News Item`                                   
   <chr>             <chr>                                                      
 1 December 20, 2019 Maryland courts, court offices, and administrative offices…
 2 December 11, 2019 Circuit Court for Washington County reduces trial jury ser…
 3 December 6, 2019  Maryland Judiciary hosts young winners of 14th Annual Conf…
 4 December 5, 2019  Media Advisory: District Court to hold Schools in the Cour…
 5 December 4, 2019  Media Advisory: Baltimore City District Court Adult Drug T…
 6 December 2, 2019  Media Advisory: Anne Arundel County District Court to hono…
 7 December 2, 2019  Media Advisory: Winners announced for Maryland Judiciary’s…
 8 November 18, 2019 Towson District Courthouse scheduled to move to new Catons…
 9 November 18, 2019 Media Advisory: Circuit courts in Maryland celebrate adopt…
10 November 13, 2019 Media Advisory: Maryland’s highest court to welcome studen…
# ℹ 43 more rows

[[7]]
# A tibble: 82 × 2
   Date              `News Release/News Item`                                   
   <chr>             <chr>                                                      
 1 December 26, 2018 New court rules refine court processes regarding guardians…
 2 December 20, 2018 Courts, court offices, and court administrative offices wi…
 3 December 18, 2018 New Maryland Rules shift pro bono and IOLTA reporting for …
 4 December 14, 2018 Scheduled website maintenance                              
 5 December 12, 2018 Media Advisory: Anne Arundel County District Court to hono…
 6 December 11, 2018 Maryland lawyers donate 1.16 million hours of legal servic…
 7 December 10, 2018 Media Advisory: Maryland Judiciary hosts participants from…
 8 December 4, 2018  Suzanne C. Johnson named clerk of the Maryland Court of Ap…
 9 December 3, 2018  Media Advisory: Courts, court offices, and administrative …
10 November 28, 2018 Media Advisory: District Court to hold Schools in the Cour…
# ℹ 72 more rows

[[8]]
# A tibble: 77 × 2
   Date              `News Release/News Item`                                   
   <chr>             <chr>                                                      
 1 December 21, 2017 New court rules regarding guardianships of vulnerable Mary…
 2 December 21, 2017 Judiciary Honors Students for Promoting Peace Through Artw…
 3 December 15, 2017 Baltimore City District Court Honors Re-Entry Project Grad…
 4 December 14, 2017 Court of Appeals Hosts Youth Conference                    
 5 December 8, 2017  Phase II of construction on Robert C. Murphy Courts of App…
 6 December 5, 2017  Court of Appeals Hosts United States Naval Academy Midship…
 7 December 5, 2017  Judicial Data Center Outage - Thursday, December 7, 2017   
 8 November 30, 2017 Pretrial Pilot Program to Launch in Baltimore County       
 9 November 29, 2017 Maryland Judiciary Hosts Oratorical Contest for Youths fro…
10 November 28, 2017 Media Advisory: Maryland Judiciary Hosts Students Who Help…
# ℹ 67 more rows

[[9]]
# A tibble: 59 × 2
   Date              `News Release/News Item`                                   
   <chr>             <chr>                                                      
 1 December 16, 2016 Judges Mentor Students in Civics                           
 2 December 15, 2016 Judiciary Honors Young Artists for Promoting Peace         
 3 December 12, 2016 Maryland Judiciary Expands MDEC and Electronic Filing to L…
 4 December 9, 2016  Media Advisory:  Maryland’s Chief Judge Congratulates Youn…
 5 December 8, 2016  Marilyn Bentley Named Clerk of Baltimore City Circuit Court
 6 December 8, 2016  Judges to Mentor Washington County Students on Civics      
 7 December 8, 2016  Judges Mentor Students on Civics                           
 8 December 1, 2016  New Email Scam Targets Attorneys                           
 9 November 23, 2016 Media Advisory: Judges to Mentor Montgomery County Student…
10 November 21, 2016 Judge Brett W. Wilson Named First Judicial Circuit Adminis…
# ℹ 49 more rows

[[10]]
# A tibble: 64 × 2
   Date              `News Release/News Item`                                   
   <chr>             <chr>                                                      
 1 December 28, 2015 Media Advisory:Pre-Trial Proceedings Begin for State of Ma…
 2 December 22, 2015 Media Advisory: New Trial Date Scheduled for State of Mary…
 3 December 21, 2015 Chief Judge Honors Young Artists for Peace                 
 4 December 15, 2015 New Rules Concerning Briefs Filed in Maryland’s Appellate …
 5 December 9, 2015  New Mobile App Improves Access to Justice                  
 6 December 1, 2015  Media Advisory:Jury Selection Continues and Trial Begins f…
 7 November 25, 2015 Media Advisory: Judges Bring Civics to Carroll County Stud…
 8 November 23, 2015 Jury Selection for State of Maryland v. William Porter on …
 9 November 20, 2015 Petition for Expungement of Records (CC-DC-CR-072) - Revis…
10 November 19, 2015 Media Advisory:Pre-Trial Motions Hearing for State of Mary…
# ℹ 54 more rows

[[11]]
# A tibble: 50 × 2
   Date              `News Release/News Item`                                   
   <chr>             <chr>                                                      
 1 December 23, 2014 Judge Charles J. Peters to Head Baltimore Circuit Court’s …
 2 December 9, 2014  Baltimore City District Court Celebrates Newest Drug Treat…
 3 December 5, 2014  Media Advisory:District Court of  Maryland’s Towson Courth…
 4 November 25, 2014 Judiciary Warns  Public to Beware of “Court” Scams         
 5 November 24, 2014 Judges Help Bring Civics to Charles County High School Stu…
 6 November 14, 2014 Young Artists Honored for Peace-making Efforts             
 7 November 12, 2014 Media Advisory: Maryland Judiciary Hosts Youths from DJS F…
 8 November 10, 2014 Media Advisory: Judiciary Holds Reception to Honor Young A…
 9 November 7, 2014  Media Advisory: Anne Arundel County Circuit Court Address …
10 November 7, 2014  Media Advisory: Circuit Courts in Maryland Celebrate “Happ…
# ℹ 40 more rows

[[12]]
# A tibble: 26 × 2
   Date              `News Release/News Item`                                   
   <chr>             <chr>                                                      
 1 December 30, 2013 Media Advisory: Judiciary Warns of False “Court Case” Emai…
 2 December 27, 2013 Judge Althea M. Handy Heads Civil Docket for Baltimore Cit…
 3 December 17, 2013 Media Advisory: Judiciary Helps Bring Civics to Baltimore …
 4 December 12, 2013 Harford County Courts Visited by Maryland’s Chief Judge    
 5 December 11, 2013 Cecil County Courts Welcome Maryland’s Chief  Judge        
 6 December 4, 2013  Maryland’s New Chief Judge Visits Prince George’s County D…
 7 December 4, 2013  Maryland’s New Chief Judge Visits Charles County Courts    
 8 December 2, 2013  State Task Force Begins Study of Civil Right to Counsel fo…
 9 November 18, 2013 Media Advisory: Circuit Courts in Maryland Celebrate Natio…
10 November 18, 2013 Media Advisory: Maryland Judiciary Hosts Youths from DJS F…
# ℹ 16 more rows
…
# Read in all html from table, store all tables on page as nested list of dataframes.
results <- courts_url |>
  read_html() |>
  html_table()

# Just keep the first dataframe in our list

results <- results[[1]]

# show the dataframe

results

# A tibble: 41 × 2
   Date              `News Release/News Item`                                   
   <chr>             <chr>                                                      
 1 December 22, 2024 Maryland courts, court offices, and administrative offices…
 2 December 20, 2024 Legionella Bacteria Detected in Baltimore City Circuit and…
 3 December 11, 2024 Maryland Judiciary Honors Student Winners of 19th Annual C…
 4 December 11, 2024 Media Advisory: District Court in Anne Arundel County offe…
 5 December 10, 2024 Media Advisory: District Court in Prince George’s County o…
 6 December 2, 2024  Media Advisory: Anne Arundel County District Court celebra…
 7 December 2, 2024  Media Advisory: Maryland Judiciary announces winners of th…
 8 November 20, 2024 Media Advisory: National Adoption Day celebrations hosted …
 9 November 20, 2024 Judge Joseph M. Stanalonis named administrative judge for …
10 November 20, 2024 Senior Judge Alan M. Wilner retires as chair of the  Stand…
# ℹ 31 more rows
…
# Standardize column headers, remove last row

results <- results[[1]] |>
  clean_names() |>
  rename(title = news_release_news_item) |>
  mutate(date = mdy(date))

# show the dataframe
results

# A tibble: 41 × 2
   date       title                                                             
   <date>     <chr>                                                             
 1 2024-12-22 Maryland courts, court offices, and administrative offices will b…
 2 2024-12-20 Legionella Bacteria Detected in Baltimore City Circuit and Distri…
 3 2024-12-11 Maryland Judiciary Honors Student Winners of 19th Annual Conflict…
 4 2024-12-11 Media Advisory: District Court in Anne Arundel County offers Scho…
 5 2024-12-10 Media Advisory: District Court in Prince George’s County offers S…
 6 2024-12-02 Media Advisory: Anne Arundel County District Court celebrates its…
 7 2024-12-02 Media Advisory: Maryland Judiciary announces winners of the 19th …
 8 2024-11-20 Media Advisory: National Adoption Day celebrations hosted by Mary…
 9 2024-11-20 Judge Joseph M. Stanalonis named administrative judge for St. Mar…
10 2024-11-20 Senior Judge Alan M. Wilner retires as chair of the  Standing Com…
# ℹ 31 more rows
…
