Data Journalism with R and the Tidyverse - 26 Visualizing your data for reporting
…
So, let’s load some WinRed contribution data we’ve previously used and create a dataframe with a count of contributions for each date in our data.

md_winred <- read_rds("data/maryland_winred.rds")

Then we’ll make our aggregate dataframe:

md_winred_by_date <- md_winred %>%
  group_by(date) %>%
  summarise(
    total_contributions=n()
  )

md_winred_by_date 

# A tibble: 91 × 2
   date       total_contributions
   <date>                   <int>
 1 2022-04-01                 580
 2 2022-04-02                 499
 3 2022-04-03                 437
 4 2022-04-04                 597
 5 2022-04-05                 601
 6 2022-04-06                 669
 7 2022-04-07                 665
 8 2022-04-08                 619
 9 2022-04-09                 498
10 2022-04-10                 500
# … with 81 more rows
…
